Projektseminar
…
Achtung: ungroup() nicht vergessen

Quelle: Posit Software (2021)

Beispiel: Gruppierung nach Variable

Ungruppierte Auswrtung der NAs

dl %>%
  filter(form == "a Situational Survey") %>%
  
  miss_case_summary()

# A tibble: 10,201 × 3
    case n_miss pct_miss
   <int>  <int>    <dbl>
 1  1758    215     87.8
 2  7396    215     87.8
 3  8570    215     87.8
 4  8572    215     87.8
 5  9377    215     87.8
 6  7795    214     87.3
 7  3925    211     86.1
 8  7032    211     86.1
 9  8553    211     86.1
10  4941    209     85.3
# … with 10,191 more rows

Gruppierte Auswertung der NAs pro Fall

dl %>%
  filter(form == "a Situational Survey") %>%
  group_by(id) %>% 
  miss_case_summary()

# A tibble: 10,201 × 4
# Groups:   id [365]
      id  case n_miss pct_miss
   <int> <int>  <int>    <dbl>
 1     1     4    196     80.3
 2     1     6    196     80.3
 3     1    10    196     80.3
 4     1    11    196     80.3
 5     1    13    196     80.3
 6     1     1    190     77.9
 7     1     2    190     77.9
 8     1     3    190     77.9
 9     1     5    190     77.9
10     1     7    190     77.9
# … with 10,191 more rows
…
