Projektseminar
…
Achtung: ungroup() nicht vergessen

Quelle: Posit Software (2021)

Beispiel: Gruppierung nach Variable

Ungruppierte Auswrtung der NAs

dl %>%
  filter(form == "a Situational Survey") %>%
  
  miss_case_summary()

# A tibble: 10,632 × 3
    case n_miss pct_miss
   <int>  <int>    <dbl>
 1  1831    215     87.8
 2  2648    215     87.8
 3  7711    215     87.8
 4  8611    215     87.8
 5  8903    215     87.8
 6  8914    215     87.8
 7  9782    215     87.8
 8 10251    215     87.8
 9 10556    215     87.8
10  8124    214     87.3
# … with 10,622 more rows

Gruppierte Auswertung der NAs pro Fall

dl %>%
  filter(form == "a Situational Survey") %>%
  group_by(id) %>% 
  miss_case_summary()

# A tibble: 10,632 × 4
# Groups:   id [368]
      id  case n_miss pct_miss
   <int> <int>  <int>    <dbl>
 1     1     4    196     80.3
 2     1     6    196     80.3
 3     1    10    196     80.3
 4     1    11    196     80.3
 5     1    14    196     80.3
 6     1    21    196     80.3
 7     1     1    190     77.9
 8     1     2    190     77.9
 9     1     3    190     77.9
10     1     5    190     77.9
# … with 10,622 more rows
…
