Projektseminar
…
Datensatz einlesen

Wie bisher:

sosci_pre_survey = read_excel("../../pretest/data/data_abschalten_2022-10-20_18-11.xlsx", col_types = "guess")

#converting one double to string
sosci_pre_survey = sosci_pre_survey %>% mutate(FI04_01 = toString(FI04_01))

Missing values prüfen

miss_var_summary(sosci_pre_survey)

# A tibble: 158 × 3
   variable              n_miss pct_miss
   <chr>                  <int>    <dbl>
 1 SERIAL                    17    100  
 2 REF                       17    100  
 3 disco_context_other       17    100  
 4 ending_selection_text     17    100  
 5 MAILSENT                  17    100  
 6 sd_living_own_kids        16     94.1
 7 TIME022                   16     94.1
 8 disco_context_8           12     70.6
 9 disco_context_9           12     70.6
10 disco_context_1           11     64.7
# … with 148 more rows
…
